"1","Crtv Latest Articles","http://crtv.cm/fr/news/top-news-24/","This fetches the latest articles from","http://crtv.cm","2017-05-19 16:54:41","2017-05-20 12:53:52","1"
"2","Crtv Politique Articles","http://crtv.cm/fr/nouvelles/politique-7/","Fetches Crtv Political articles","http://crtv.cm","2017-05-19 16:56:09","2017-05-19 16:56:09","2"
"3","Crtv Economie Articles","http://crtv.cm/fr/nouvelles/economie-3/","Fetches crtv economie articles","http://crtv.cm","2017-05-19 17:03:22","2017-05-19 17:03:22","3"
"4","Crtv Divers","http://crtv.cm/fr/nouvelles/international-25/","For getting other news articles, we will use Crtv International news for now","http://crtv.cm","2017-05-19 17:52:23","2017-05-19 17:52:23","7"
"5","Crtv Arts & Culture News","http://crtv.cm/fr/nouvelles/art-et-culture-2/","Gets Crtv Arts and Culture articles","http://crtv.cm","2017-05-19 17:55:32","2017-05-19 17:55:32","5"
"6","Crtv Sports News","http://crtv.cm/fr/nouvelles/sport-11/","Fetches Crtv sports content","http://crtv.cm","2017-05-19 17:57:48","2017-05-19 17:57:48","6"
